{
  "data": [
    {
      "id": 1,
      "name": "Test 3",
      "date_created": "2019-04-28T17:11:33Z",
      "date_modified": "2021-10-11T05:29:31Z",
      "active": true
    },
    {
      "id": 23,
      "name": "Test",
      "date_created": "2019-08-05T12:11:41Z",
      "date_modified": "2019-08-05T12:19:29Z",
      "active": false
    },
    {
      "id": 24,
      "name": "Test 2",
      "date_created": "2019-08-06T02:02:02Z",
      "date_modified": "2019-08-06T03:16:33Z",
      "active": false
    }
  ],
  "meta": {
    "pagination": {
      "total": 6,
      "count": 3,
      "per_page": 3,
      "current_page": 1,
      "total_pages": 2
    }
  }
}